Analysis of metaphoricity & creativity
…
Exclude:

E2 <- filter(E2, NativeSpeaker != "No, I did not grow up speaking English at home")

Make into long format:

E1

## # A tibble: 50 x 63
##    StartDate EndDate Progress `Duration (in s~ Finished RecordedDate ID   
##    <chr>     <chr>      <dbl>            <dbl> <lgl>    <chr>        <chr>
##  1 19/04/20~ 19/04/~      100              318 TRUE     19/04/2021 ~ R_D7~
##  2 19/04/20~ 19/04/~      100              371 TRUE     19/04/2021 ~ R_1z~
##  3 19/04/20~ 19/04/~      100              299 TRUE     19/04/2021 ~ R_3P~
##  4 19/04/20~ 19/04/~      100             1140 TRUE     19/04/2021 ~ R_1O~
##  5 19/04/20~ 19/04/~      100              788 TRUE     19/04/2021 ~ R_1C~
##  6 19/04/20~ 19/04/~      100              755 TRUE     19/04/2021 ~ R_3K~
##  7 19/04/20~ 19/04/~      100              295 TRUE     19/04/2021 ~ R_3K~
##  8 19/04/20~ 19/04/~      100              316 TRUE     19/04/2021 ~ R_Bz~
##  9 19/04/20~ 19/04/~      100              205 TRUE     19/04/2021 ~ R_22~
## 10 19/04/20~ 19/04/~      100              231 TRUE     19/04/2021 ~ R_1O~
## # ... with 40 more rows, and 56 more variables: CatchTrial <dbl>, Item_1 <chr>,
## #   Item_2 <chr>, Item_3 <chr>, Item_4 <chr>, Item_5 <chr>, Item_6 <chr>,
## #   Item_7 <chr>, Item_8 <chr>, Item_9 <chr>, Item_10 <chr>, Item_11 <chr>,
## #   Item_12 <chr>, Item_13 <chr>, Item_14 <chr>, Item_15 <chr>, Item_16 <chr>,
## #   Item_17 <chr>, Item_18 <chr>, Item_19 <chr>, Item_20 <chr>, Item_21 <chr>,
## #   Item_22 <chr>, Item_23 <chr>, Item_24 <chr>, Item_25 <chr>, Item_26 <chr>,
## #   Item_27 <chr>, Item_28 <chr>, Item_29 <chr>, Item_30 <chr>, Item_31 <chr>,
## #   Item_32 <chr>, Item_33 <chr>, Item_34 <chr>, Item_35 <chr>, Item_36 <chr>,
## #   Item_37 <chr>, Item_38 <chr>, Item_39 <chr>, Item_40 <chr>, Item_41 <chr>,
…
